simulation/qsim/ProyectoDigitales.msim.vcd
$comment
	File created using the following command:
		vcd file ProyectoDigitales.msim.vcd -direction
$end
$date
	Fri Apr 23 17:05:21 2021
$end
$version
	ModelSim Version 10.5b
$end
$timescale
	1ps
$end

$scope module proyectodigitales_vhd_vec_tst $end
$var wire 1 ! clk $end
$var wire 1 " D00 $end
$var wire 1 # D01 $end
$var wire 1 $ D02 $end
$var wire 1 % D03 $end
$var wire 1 & D10 $end
$var wire 1 ' D11 $end
$var wire 1 ( D12 $end
$var wire 1 ) D13 $end
$var wire 1 * D20 $end
$var wire 1 + D21 $end
$var wire 1 , D22 $end
$var wire 1 - D23 $end
$var wire 1 . Digito [3] $end
$var wire 1 / Digito [2] $end
$var wire 1 0 Digito [1] $end
$var wire 1 1 Digito [0] $end
$var wire 1 2 enter $end
$var wire 1 3 est [3] $end
$var wire 1 4 est [2] $end
$var wire 1 5 est [1] $end
$var wire 1 6 est [0] $end
$var wire 1 7 fin $end
$var wire 1 8 Q [3] $end
$var wire 1 9 Q [2] $end
$var wire 1 : Q [1] $end
$var wire 1 ; Q [0] $end
$var wire 1 < resetn $end
$var wire 1 = start $end

$scope module i1 $end
$var wire 1 > gnd $end
$var wire 1 ? vcc $end
$var wire 1 @ unknown $end
$var wire 1 A devoe $end
$var wire 1 B devclrn $end
$var wire 1 C devpor $end
$var wire 1 D ww_devoe $end
$var wire 1 E ww_devclrn $end
$var wire 1 F ww_devpor $end
$var wire 1 G ww_fin $end
$var wire 1 H ww_resetn $end
$var wire 1 I ww_clk $end
$var wire 1 J ww_start $end
$var wire 1 K ww_enter $end
$var wire 1 L ww_D03 $end
$var wire 1 M ww_Digito [3] $end
$var wire 1 N ww_Digito [2] $end
$var wire 1 O ww_Digito [1] $end
$var wire 1 P ww_Digito [0] $end
$var wire 1 Q ww_D02 $end
$var wire 1 R ww_D01 $end
$var wire 1 S ww_D00 $end
$var wire 1 T ww_D13 $end
$var wire 1 U ww_D12 $end
$var wire 1 V ww_D11 $end
$var wire 1 W ww_D10 $end
$var wire 1 X ww_D23 $end
$var wire 1 Y ww_D22 $end
$var wire 1 Z ww_D21 $end
$var wire 1 [ ww_D20 $end
$var wire 1 \ ww_est [3] $end
$var wire 1 ] ww_est [2] $end
$var wire 1 ^ ww_est [1] $end
$var wire 1 _ ww_est [0] $end
$var wire 1 ` ww_Q [3] $end
$var wire 1 a ww_Q [2] $end
$var wire 1 b ww_Q [1] $end
$var wire 1 c ww_Q [0] $end
$var wire 1 d \~QUARTUS_CREATED_GND~I_combout\ $end
$var wire 1 e \clk~input_o\ $end
$var wire 1 f \clk~inputCLKENA0_outclk\ $end
$var wire 1 g \start~input_o\ $end
$var wire 1 h \enter~input_o\ $end
$var wire 1 i \inst1|y~17_combout\ $end
$var wire 1 j \resetn~input_o\ $end
$var wire 1 k \inst1|y.s12~q\ $end
$var wire 1 l \inst1|Selector0~0_combout\ $end
$var wire 1 m \inst1|y.s0~q\ $end
$var wire 1 n \inst1|y~24_combout\ $end
$var wire 1 o \inst1|y.s1~q\ $end
$var wire 1 p \inst1|Selector1~0_combout\ $end
$var wire 1 q \inst1|y.s2~q\ $end
$var wire 1 r \inst1|y~23_combout\ $end
$var wire 1 s \inst1|y.s3~q\ $end
$var wire 1 t \inst1|y~20_combout\ $end
$var wire 1 u \inst1|y.s4~q\ $end
$var wire 1 v \inst1|Selector2~0_combout\ $end
$var wire 1 w \inst1|y.s5~q\ $end
$var wire 1 x \inst1|y~22_combout\ $end
$var wire 1 y \inst1|y.s6~q\ $end
$var wire 1 z \inst1|y~21_combout\ $end
$var wire 1 { \inst1|y.s7~q\ $end
$var wire 1 | \inst1|Selector3~0_combout\ $end
$var wire 1 } \inst1|y.s8~q\ $end
$var wire 1 ~ \inst1|y~19_combout\ $end
$var wire 1 !! \inst1|y.s9~q\ $end
$var wire 1 "! \inst1|y~18_combout\ $end
$var wire 1 #! \inst1|y.s10~q\ $end
$var wire 1 $! \inst1|Selector4~0_combout\ $end
$var wire 1 %! \inst1|y.s11~q\ $end
$var wire 1 &! \inst1|WideOr5~0_combout\ $end
$var wire 1 '! \Digito[3]~input_o\ $end
$var wire 1 (! \inst7|q[3]~feeder_combout\ $end
$var wire 1 )! \Digito[2]~input_o\ $end
$var wire 1 *! \inst7|q[2]~feeder_combout\ $end
$var wire 1 +! \Digito[1]~input_o\ $end
$var wire 1 ,! \Digito[0]~input_o\ $end
$var wire 1 -! \inst7|q[0]~feeder_combout\ $end
$var wire 1 .! \inst8|q[2]~feeder_combout\ $end
$var wire 1 /! \inst9|q[2]~feeder_combout\ $end
$var wire 1 0! \inst9|q[0]~feeder_combout\ $end
$var wire 1 1! \inst1|WideOr5~combout\ $end
$var wire 1 2! \inst1|WideOr6~combout\ $end
$var wire 1 3! \inst1|WideOr7~0_combout\ $end
$var wire 1 4! \inst1|WideOr7~combout\ $end
$var wire 1 5! \inst1|WideOr8~combout\ $end
$var wire 1 6! \inst3|Q[3]~0_combout\ $end
$var wire 1 7! \inst6|Q[3]~0_combout\ $end
$var wire 1 8! \inst3|Q[2]~1_combout\ $end
$var wire 1 9! \inst6|Q[2]~1_combout\ $end
$var wire 1 :! \inst10|z~1_combout\ $end
$var wire 1 ;! \inst10|z~2_combout\ $end
$var wire 1 <! \inst3|Q[1]~3_combout\ $end
$var wire 1 =! \inst11|z~1_combout\ $end
$var wire 1 >! \inst11|z~2_combout\ $end
$var wire 1 ?! \inst6|Q[1]~3_combout\ $end
$var wire 1 @! \inst10|z~0_combout\ $end
$var wire 1 A! \inst3|Q[0]~2_combout\ $end
$var wire 1 B! \inst11|z~0_combout\ $end
$var wire 1 C! \inst6|Q[0]~2_combout\ $end
$var wire 1 D! \inst7|q\ [3] $end
$var wire 1 E! \inst7|q\ [2] $end
$var wire 1 F! \inst7|q\ [1] $end
$var wire 1 G! \inst7|q\ [0] $end
$var wire 1 H! \inst8|q\ [3] $end
$var wire 1 I! \inst8|q\ [2] $end
$var wire 1 J! \inst8|q\ [1] $end
$var wire 1 K! \inst8|q\ [0] $end
$var wire 1 L! \inst9|q\ [3] $end
$var wire 1 M! \inst9|q\ [2] $end
$var wire 1 N! \inst9|q\ [1] $end
$var wire 1 O! \inst9|q\ [0] $end
$var wire 1 P! \inst11|ALT_INV_z~2_combout\ $end
$var wire 1 Q! \inst11|ALT_INV_z~1_combout\ $end
$var wire 1 R! \inst11|ALT_INV_z~0_combout\ $end
$var wire 1 S! \inst3|ALT_INV_Q[0]~2_combout\ $end
$var wire 1 T! \inst10|ALT_INV_z~2_combout\ $end
$var wire 1 U! \inst10|ALT_INV_z~1_combout\ $end
$var wire 1 V! \inst3|ALT_INV_Q[2]~1_combout\ $end
$var wire 1 W! \inst3|ALT_INV_Q[3]~0_combout\ $end
$var wire 1 X! \inst10|ALT_INV_z~0_combout\ $end
$var wire 1 Y! \inst1|ALT_INV_y.s1~q\ $end
$var wire 1 Z! \inst1|ALT_INV_WideOr7~0_combout\ $end
$var wire 1 [! \inst1|ALT_INV_y.s3~q\ $end
$var wire 1 \! \inst1|ALT_INV_y.s2~q\ $end
$var wire 1 ]! \inst1|ALT_INV_y.s6~q\ $end
$var wire 1 ^! \inst1|ALT_INV_y.s5~q\ $end
$var wire 1 _! \inst1|ALT_INV_y.s7~q\ $end
$var wire 1 `! \inst1|ALT_INV_y.s4~q\ $end
$var wire 1 a! \inst1|ALT_INV_y.s9~q\ $end
$var wire 1 b! \inst1|ALT_INV_y.s8~q\ $end
$var wire 1 c! \inst1|ALT_INV_y.s10~q\ $end
$var wire 1 d! \inst9|ALT_INV_q\ [3] $end
$var wire 1 e! \inst9|ALT_INV_q\ [2] $end
$var wire 1 f! \inst9|ALT_INV_q\ [1] $end
$var wire 1 g! \inst9|ALT_INV_q\ [0] $end
$var wire 1 h! \inst8|ALT_INV_q\ [3] $end
$var wire 1 i! \inst8|ALT_INV_q\ [2] $end
$var wire 1 j! \inst8|ALT_INV_q\ [1] $end
$var wire 1 k! \inst8|ALT_INV_q\ [0] $end
$var wire 1 l! \inst7|ALT_INV_q\ [3] $end
$var wire 1 m! \inst7|ALT_INV_q\ [2] $end
$var wire 1 n! \inst7|ALT_INV_q\ [1] $end
$var wire 1 o! \inst7|ALT_INV_q\ [0] $end
$var wire 1 p! \inst1|ALT_INV_WideOr5~0_combout\ $end
$var wire 1 q! \inst1|ALT_INV_y.s12~q\ $end
$var wire 1 r! \inst1|ALT_INV_y.s11~q\ $end
$var wire 1 s! \ALT_INV_enter~input_o\ $end
$var wire 1 t! \ALT_INV_Digito[0]~input_o\ $end
$var wire 1 u! \ALT_INV_Digito[2]~input_o\ $end
$var wire 1 v! \ALT_INV_Digito[3]~input_o\ $end
$var wire 1 w! \ALT_INV_start~input_o\ $end
$var wire 1 x! \inst3|ALT_INV_Q[1]~3_combout\ $end
$var wire 1 y! \inst1|ALT_INV_y.s0~q\ $end
$upscope $end
$upscope $end
$enddefinitions $end
#0
$dumpvars
0!
0"
0#
0$
0%
0&
0'
0(
0)
0*
0+
0,
0-
02
07
0<
0=
0>
1?
x@
1A
1B
1C
1D
1E
1F
0G
0H
0I
0J
0K
0L
0Q
0R
0S
0T
0U
0V
0W
0X
0Y
0Z
0[
xd
0e
0f
0g
0h
0i
0j
0k
0l
0m
0n
0o
0p
0q
0r
0s
0t
0u
0v
0w
0x
0y
0z
0{
0|
0}
0~
0!!
0"!
0#!
0$!
0%!
1&!
0'!
0(!
1)!
1*!
0+!
0,!
0-!
1.!
1/!
00!
01!
02!
13!
04!
05!
06!
07!
08!
09!
1:!
0;!
0<!
1=!
0>!
0?!
0@!
0A!
0B!
0C!
1P!
0Q!
1R!
1S!
1T!
0U!
1V!
1W!
1X!
1Y!
0Z!
1[!
1\!
1]!
1^!
1_!
1`!
1a!
1b!
1c!
0p!
1q!
1r!
1s!
1t!
0u!
1v!
1w!
1x!
1y!
0.
1/
00
01
0M
1N
0O
0P
0\
0]
0^
0_
0`
0a
0b
0c
0D!
0E!
0F!
0G!
0H!
0I!
0J!
0K!
0L!
0M!
0N!
0O!
1d!
1e!
1f!
1g!
1h!
1i!
1j!
1k!
1l!
1m!
1n!
1o!
03
04
05
06
08
09
0:
0;
$end
#5000
1!
1I
1e
1f
#10000
0!
1.
10
0I
1O
1M
1'!
1+!
0e
0f
0v!
1(!
#15000
1!
1I
1e
1f
#20000
0!
00
0/
0I
0O
0N
0)!
0+!
0e
0f
1u!
0*!
0.!
0/!
#25000
1!
1I
1e
1f
#30000
0!
1<
11
0I
1H
1P
1,!
1j
0e
0f
0t!
1-!
10!
#35000
1!
1I
1e
1f
#40000
0!
01
10
1/
0.
0I
0P
1O
1N
0M
0'!
1)!
1+!
0,!
0e
0f
1t!
0u!
1v!
0(!
1*!
1.!
1/!
0-!
00!
#45000
1!
1I
1e
1f
#50000
0!
0I
0e
0f
#55000
1!
1I
1e
1f
#60000
0!
1.
0I
1M
1'!
0e
0f
0v!
1(!
#65000
1!
1I
1e
1f
#70000
0!
0.
11
0/
1=
0I
1P
0N
0M
1J
1g
0'!
0)!
1,!
0e
0f
0t!
1u!
1v!
0w!
1l
1n
0(!
0*!
0.!
0/!
1-!
10!
#75000
1!
1I
1e
1f
1m
1o
0Y!
0y!
15!
1_
16
#80000
0!
01
1/
0I
0P
1N
1)!
0,!
0e
0f
1t!
0u!
1*!
1.!
1/!
0-!
00!
#85000
1!
1I
1e
1f
#90000
0!
11
1.
0=
00
0I
1P
0O
1M
0J
0g
1'!
0+!
1,!
0e
0f
0t!
0v!
1w!
0n
1p
1(!
1-!
10!
#95000
1!
1I
1e
1f
0o
1q
0\!
1Y!
05!
14!
1^
0_
06
15
#100000
0!
01
0.
0/
0I
0P
0N
0M
0'!
0)!
0,!
0e
0f
1t!
1u!
1v!
0(!
0*!
0.!
0/!
0-!
00!
#105000
1!
1I
1e
1f
#110000
0!
0I
0e
0f
#115000
1!
1I
1e
1f
#120000
0!
11
10
12
0I
1P
1O
1K
1h
1+!
1,!
0e
0f
0t!
0s!
0p
1r
1-!
10!
#125000
1!
1I
1e
1f
0q
1s
0[!
1\!
04!
03!
1Z!
14!
15!
0^
05
1_
1^
16
15
#130000
0!
1.
0I
1M
1'!
0e
0f
0v!
1(!
#135000
1!
1I
1e
1f
#140000
0!
0.
00
02
1/
0I
0O
1N
0M
0K
0h
0'!
1)!
0+!
0e
0f
0u!
1v!
1s!
0r
1t
0(!
1*!
1.!
1/!
#145000
1!
1I
1e
1f
0s
1u
0`!
1[!
0t
13!
1v
12!
0Z!
04!
05!
1]
14
0_
0^
06
05
#150000
0!
01
0I
0P
0,!
0e
0f
1t!
0-!
00!
#155000
1!
1I
1e
1f
0u
1w
1E!
0m!
0^!
1`!
15!
0=!
1Q!
1Q
1$
1_
16
#160000
0!
11
1.
0I
1P
1M
1'!
1,!
0e
0f
0t!
0v!
1(!
1-!
10!
#165000
1!
1I
1e
1f
#170000
0!
01
10
0I
0P
1O
1+!
0,!
0e
0f
1t!
0-!
00!
#175000
1!
1I
1e
1f
#180000
0!
11
00
0/
0I
1P
0O
0N
0)!
0+!
1,!
0e
0f
0t!
1u!
0*!
0.!
0/!
1-!
10!
#185000
1!
1I
1e
1f
#190000
0!
1/
12
0I
1N
1K
1h
1)!
0e
0f
0u!
0s!
0v
1x
1*!
1.!
1/!
#195000
1!
1I
1e
1f
0w
1y
0]!
1^!
05!
14!
1^
0_
06
15
#200000
0!
0/
02
10
0.
0I
1O
0N
0M
0K
0h
0'!
0)!
1+!
0e
0f
1u!
1v!
1s!
0x
1z
0(!
0*!
0.!
0/!
#205000
1!
1I
1e
1f
0y
1{
0_!
1]!
0z
04!
1|
03!
1Z!
14!
15!
0^
05
1_
1^
16
15
#210000
0!
00
0I
0O
0+!
0e
0f
#215000
1!
1I
1e
1f
0{
1}
1K!
0k!
0b!
1_!
02!
13!
11!
0Z!
1W
04!
05!
1&
1\
0]
04
13
0_
0^
06
05
#220000
0!
10
1/
1.
01
0I
0P
1O
1N
1M
1'!
1)!
1+!
0,!
0e
0f
1t!
0u!
0v!
1(!
1*!
1.!
1/!
0-!
00!
#225000
1!
1I
1e
1f
#230000
0!
00
0/
0.
11
0I
1P
0O
0N
0M
0'!
0)!
0+!
1,!
0e
0f
0t!
1u!
1v!
0(!
0*!
0.!
0/!
1-!
10!
#235000
1!
1I
1e
1f
#240000
0!
10
1.
12
0I
1O
1M
1K
1h
1'!
1+!
0e
0f
0v!
0s!
0|
1~
1(!
#245000
1!
1I
1e
1f
0}
1!!
0a!
1b!
15!
1_
16
#250000
0!
00
0I
0O
0+!
0e
0f
#255000
1!
1I
1e
1f
#260000
0!
0.
02
0I
0M
0K
0h
0'!
0e
0f
1v!
1s!
0~
1"!
0(!
#265000
1!
1I
1e
1f
0!!
1#!
0c!
1a!
0"!
05!
1$!
14!
1^
0_
06
15
#270000
0!
1/
0I
1N
1)!
0e
0f
0u!
1*!
1.!
1/!
#275000
1!
1I
1e
1f
0#!
1%!
1M!
1O!
0g!
0e!
0r!
1c!
01!
04!
0&!
03!
0:!
1A!
0S!
1U!
1Z!
1p!
1[
1Y
11!
14!
15!
1C!
1*
1,
0^
0\
1G
05
03
17
1c
1_
1^
1\
1;
16
15
13
#280000
0!
0/
10
01
0I
0P
1O
0N
0)!
1+!
0,!
0e
0f
1t!
1u!
0*!
0.!
0/!
0-!
00!
#285000
1!
1I
1e
1f
#290000
0!
1/
00
11
1.
0I
1P
0O
1N
1M
1'!
1)!
0+!
1,!
0e
0f
0t!
0u!
0v!
1(!
1*!
1.!
1/!
1-!
10!
#295000
1!
1I
1e
1f
#300000
0!
01
1=
0I
0P
1J
1g
0,!
0e
0f
1t!
0w!
1i
0$!
0-!
00!
#305000
1!
1I
1e
1f
1k
0%!
1r!
0q!
12!
13!
0Z!
04!
05!
1]
14
0_
0^
06
05
#310000
0!
0/
10
0I
1O
0N
0)!
1+!
0e
0f
1u!
0*!
0.!
0/!
#315000
1!
1I
1e
1f
#320000
0!
1/
00
11
0=
0.
0I
1P
0O
1N
0M
0J
0g
0'!
1)!
0+!
1,!
0e
0f
0t!
0u!
1v!
1w!
0i
0l
0(!
1*!
1.!
1/!
1-!
10!
#325000
1!
1I
1e
1f
0k
0m
1y!
1q!
0E!
0K!
0M!
0O!
1&!
02!
1g!
1e!
1k!
1m!
0p!
1=!
1:!
0A!
01!
1S!
0U!
0Q!
0[
0Y
0W
0Q
0]
0C!
0*
0,
0&
0$
0G
04
07
0\
03
0c
0;
#330000
0!
10
01
1.
0I
0P
1O
1M
1'!
1+!
0,!
0e
0f
1t!
0v!
1(!
0-!
00!
#335000
1!
1I
1e
1f
#340000
0!
00
11
0.
0/
1=
0I
1P
0O
0N
0M
1J
1g
0'!
0)!
0+!
1,!
0e
0f
0t!
1u!
1v!
0w!
1l
1n
0(!
0*!
0.!
0/!
1-!
10!
#345000
1!
1I
1e
1f
1m
1o
0Y!
0y!
15!
1_
16
#350000
0!
1.
1/
0I
1N
1M
1'!
1)!
0e
0f
0u!
0v!
1(!
1*!
1.!
1/!
#355000
1!
1I
1e
1f
#360000
0!
0.
0/
0=
0I
0N
0M
0J
0g
0'!
0)!
0e
0f
1u!
1v!
1w!
0n
1p
0(!
0*!
0.!
0/!
#365000
1!
1I
1e
1f
0o
1q
0\!
1Y!
05!
14!
1^
0_
06
15
#370000
0!
1/
0I
1N
1)!
0e
0f
0u!
1*!
1.!
1/!
#375000
1!
1I
1e
1f
#380000
0!
12
0I
1K
1h
0e
0f
0s!
0p
1r
#385000
1!
1I
1e
1f
0q
1s
0[!
1\!
04!
03!
1Z!
14!
15!
0^
05
1_
1^
16
15
#390000
0!
0/
1.
10
01
0I
0P
1O
0N
1M
1'!
0)!
1+!
0,!
0e
0f
1t!
1u!
0v!
1(!
0*!
0.!
0/!
0-!
00!
#395000
1!
1I
1e
1f
#400000
0!
0.
02
0I
0M
0K
0h
0'!
0e
0f
1v!
1s!
0r
1t
0(!
#405000
1!
1I
1e
1f
0s
1u
0`!
1[!
0t
13!
1v
12!
0Z!
04!
05!
1]
14
0_
0^
06
05
#410000
0!
1.
00
0I
0O
1M
1'!
0+!
0e
0f
0v!
1(!
#415000
1!
1I
1e
1f
0u
1w
1D!
0l!
0^!
1`!
15!
0=!
1Q!
1L
1%
1_
16
#420000
0!
0.
1/
0I
1N
0M
0'!
1)!
0e
0f
0u!
1v!
0(!
1*!
1.!
1/!
#425000
1!
1I
1e
1f
#430000
0!
0/
12
11
0I
1P
0N
1K
1h
0)!
1,!
0e
0f
0t!
1u!
0s!
0v
1x
0*!
0.!
0/!
1-!
10!
#435000
1!
1I
1e
1f
0w
1y
0]!
1^!
05!
14!
1^
0_
06
15
#440000
0!
1.
0I
1M
1'!
0e
0f
0v!
1(!
#445000
1!
1I
1e
1f
#450000
0!
0.
02
01
0I
0P
0M
0K
0h
0'!
0,!
0e
0f
1t!
1v!
1s!
0x
1z
0(!
0-!
00!
#455000
1!
1I
1e
1f
0y
1{
0_!
1]!
0z
04!
1|
03!
1Z!
14!
15!
0^
05
1_
1^
16
15
#460000
0!
1.
11
0I
1P
1M
1'!
1,!
0e
0f
0t!
0v!
1(!
1-!
10!
#465000
1!
1I
1e
1f
0{
1}
1H!
1K!
0k!
0h!
0b!
1_!
02!
13!
11!
0:!
1;!
0T!
1U!
0Z!
1W
1T
04!
05!
1&
1)
1\
0]
04
13
0_
0^
06
05
#470000
0!
0.
10
0I
1O
0M
0'!
1+!
0e
0f
1v!
0(!
#475000
1!
1I
1e
1f
#480000
0!
00
01
12
0I
0P
0O
1K
1h
0+!
0,!
0e
0f
1t!
0s!
0|
1~
0-!
00!
#485000
1!
1I
1e
1f
0}
1!!
0a!
1b!
15!
1_
16
#490000
0!
11
1/
0I
1P
1N
1)!
1,!
0e
0f
0t!
0u!
1*!
1.!
1/!
1-!
10!
#495000
1!
1I
1e
1f
#500000
0!
01
0/
02
1.
0I
0P
0N
1M
0K
0h
1'!
0)!
0,!
0e
0f
1t!
1u!
0v!
1s!
0~
1"!
1(!
0*!
0.!
0/!
0-!
00!
#505000
1!
1I
1e
1f
0!!
1#!
0c!
1a!
0"!
05!
1$!
14!
1^
0_
06
15
#510000
0!
1/
0.
10
0I
1O
1N
0M
0'!
1)!
1+!
0e
0f
0u!
1v!
0(!
1*!
1.!
1/!
#515000
1!
1I
1e
1f
0#!
1%!
1M!
1N!
0f!
0e!
0r!
1c!
01!
04!
0&!
03!
18!
1<!
1@!
0X!
0x!
0V!
1Z!
1p!
1Z
1Y
11!
14!
15!
19!
1?!
1+
1,
0^
0\
1G
05
03
17
1b
1a
1_
1^
1\
1:
19
16
15
13
#520000
0!
11
1=
0I
1P
1J
1g
1,!
0e
0f
0t!
0w!
1i
0$!
1-!
10!
#525000
1!
1I
1e
1f
1k
0%!
1r!
0q!
12!
13!
0Z!
04!
05!
1]
14
0_
0^
06
05
#530000
0!
0/
1.
0I
0N
1M
1'!
0)!
0e
0f
1u!
0v!
1(!
0*!
0.!
0/!
#535000
1!
1I
1e
1f
#540000
0!
1/
01
0=
0I
0P
1N
0J
0g
1)!
0,!
0e
0f
1t!
0u!
1w!
0i
0l
1*!
1.!
1/!
0-!
00!
#545000
1!
1I
1e
1f
0k
0m
1y!
1q!
0D!
0H!
0K!
0M!
0N!
1&!
02!
1f!
1e!
1k!
1h!
1l!
0p!
09!
1>!
08!
1:!
0;!
0<!
0@!
01!
1X!
1x!
1T!
0U!
1V!
0P!
0Z
0Y
0W
0T
0L
0]
1=!
0>!
0?!
0+
0,
0&
0)
0%
0G
1P!
0Q!
04
0a
07
0\
09
03
0b
0:
#550000
0!
11
0.
00
0I
1P
0O
0M
0'!
0+!
1,!
0e
0f
0t!
1v!
0(!
1-!
10!
#555000
1!
1I
1e
1f
#560000
0!
10
0/
0I
1O
0N
0)!
1+!
0e
0f
1u!
0*!
0.!
0/!
#565000
1!
1I
1e
1f
#570000
0!
00
01
0I
0P
0O
0+!
0,!
0e
0f
1t!
0-!
00!
#575000
1!
1I
1e
1f
#580000
0!
10
0I
1O
1+!
0e
0f
#585000
1!
1I
1e
1f
#590000
0!
00
11
1/
0I
1P
0O
1N
1)!
0+!
1,!
0e
0f
0t!
0u!
1*!
1.!
1/!
1-!
10!
#595000
1!
1I
1e
1f
#600000
0!
10
01
0I
0P
1O
1+!
0,!
0e
0f
1t!
0-!
00!
#605000
1!
1I
1e
1f
#610000
0!
1.
0I
1M
1'!
0e
0f
0v!
1(!
#615000
1!
1I
1e
1f
#620000
0!
00
11
0/
0I
1P
0O
0N
0)!
0+!
1,!
0e
0f
0t!
1u!
0*!
0.!
0/!
1-!
10!
#625000
1!
1I
1e
1f
#630000
0!
01
1/
0.
0I
0P
1N
0M
0'!
1)!
0,!
0e
0f
1t!
0u!
1v!
0(!
1*!
1.!
1/!
0-!
00!
#635000
1!
1I
1e
1f
#640000
0!
0/
1.
0I
0N
1M
1'!
0)!
0e
0f
1u!
0v!
1(!
0*!
0.!
0/!
#645000
1!
1I
1e
1f
#650000
0!
11
0I
1P
1,!
0e
0f
0t!
1-!
10!
#655000
1!
1I
1e
1f
#660000
0!
1/
10
0I
1O
1N
1)!
1+!
0e
0f
0u!
1*!
1.!
1/!
#665000
1!
1I
1e
1f
#670000
0!
00
0I
0O
0+!
0e
0f
#675000
1!
1I
1e
1f
#680000
0!
01
0I
0P
0,!
0e
0f
1t!
0-!
00!
#685000
1!
1I
1e
1f
#690000
0!
10
0/
0I
1O
0N
0)!
1+!
0e
0f
1u!
0*!
0.!
0/!
#695000
1!
1I
1e
1f
#700000
0!
1/
11
0I
1P
1N
1)!
1,!
0e
0f
0t!
0u!
1*!
1.!
1/!
1-!
10!
#705000
1!
1I
1e
1f
#710000
0!
00
0.
0I
0O
0M
0'!
0+!
0e
0f
1v!
0(!
#715000
1!
1I
1e
1f
#720000
0!
1.
0/
01
0I
0P
0N
1M
1'!
0)!
0,!
0e
0f
1t!
1u!
0v!
1(!
0*!
0.!
0/!
0-!
00!
#725000
1!
1I
1e
1f
#730000
0!
0.
0I
0M
0'!
0e
0f
1v!
0(!
#735000
1!
1I
1e
1f
#740000
0!
1.
11
0I
1P
1M
1'!
1,!
0e
0f
0t!
0v!
1(!
1-!
10!
#745000
1!
1I
1e
1f
#750000
0!
0.
10
0I
1O
0M
0'!
1+!
0e
0f
1v!
0(!
#755000
1!
1I
1e
1f
#760000
0!
01
1/
0I
0P
1N
1)!
0,!
0e
0f
1t!
0u!
1*!
1.!
1/!
0-!
00!
#765000
1!
1I
1e
1f
#770000
0!
00
0I
0O
0+!
0e
0f
#775000
1!
1I
1e
1f
#780000
0!
11
1.
0I
1P
1M
1'!
1,!
0e
0f
0t!
0v!
1(!
1-!
10!
#785000
1!
1I
1e
1f
#790000
0!
0.
10
0/
0I
1O
0N
0M
0'!
0)!
1+!
0e
0f
1u!
1v!
0(!
0*!
0.!
0/!
#795000
1!
1I
1e
1f
#800000
0!
1.
00
01
0I
0P
0O
1M
1'!
0+!
0,!
0e
0f
1t!
0v!
1(!
0-!
00!
#805000
1!
1I
1e
1f
#810000
0!
11
0I
1P
1,!
0e
0f
0t!
1-!
10!
#815000
1!
1I
1e
1f
#820000
0!
01
10
0I
0P
1O
1+!
0,!
0e
0f
1t!
0-!
00!
#825000
1!
1I
1e
1f
#830000
0!
11
00
0I
1P
0O
0+!
1,!
0e
0f
0t!
1-!
10!
#835000
1!
1I
1e
1f
#840000
0!
10
0.
0I
1O
0M
0'!
1+!
0e
0f
1v!
0(!
#845000
1!
1I
1e
1f
#850000
0!
00
01
0I
0P
0O
0+!
0,!
0e
0f
1t!
0-!
00!
#855000
1!
1I
1e
1f
#860000
0!
10
11
1/
0I
1P
1O
1N
1)!
1+!
1,!
0e
0f
0t!
0u!
1*!
1.!
1/!
1-!
10!
#865000
1!
1I
1e
1f
#870000
0!
1.
0I
1M
1'!
0e
0f
0v!
1(!
#875000
1!
1I
1e
1f
#880000
0!
0.
00
01
0/
0I
0P
0O
0N
0M
0'!
0)!
0+!
0,!
0e
0f
1t!
1u!
1v!
0(!
0*!
0.!
0/!
0-!
00!
#885000
1!
1I
1e
1f
#890000
0!
10
1/
0I
1O
1N
1)!
1+!
0e
0f
0u!
1*!
1.!
1/!
#895000
1!
1I
1e
1f
#900000
0!
0/
11
0I
1P
0N
0)!
1,!
0e
0f
0t!
1u!
0*!
0.!
0/!
1-!
10!
#905000
1!
1I
1e
1f
#910000
0!
0I
0e
0f
#915000
1!
1I
1e
1f
#920000
0!
1/
01
00
1.
0I
0P
0O
1N
1M
1'!
1)!
0+!
0,!
0e
0f
1t!
0u!
0v!
1(!
1*!
1.!
1/!
0-!
00!
#925000
1!
1I
1e
1f
#930000
0!
0/
11
10
0.
0I
1P
1O
0N
0M
0'!
0)!
1+!
1,!
0e
0f
0t!
1u!
1v!
0(!
0*!
0.!
0/!
1-!
10!
#935000
1!
1I
1e
1f
#940000
0!
1/
0I
1N
1)!
0e
0f
0u!
1*!
1.!
1/!
#945000
1!
1I
1e
1f
#950000
0!
0/
01
0I
0P
0N
0)!
0,!
0e
0f
1t!
1u!
0*!
0.!
0/!
0-!
00!
#955000
1!
1I
1e
1f
#960000
0!
1/
0I
1N
1)!
0e
0f
0u!
1*!
1.!
1/!
#965000
1!
1I
1e
1f
#970000
0!
11
0I
1P
1,!
0e
0f
0t!
1-!
10!
#975000
1!
1I
1e
1f
#980000
0!
01
0I
0P
0,!
0e
0f
1t!
0-!
00!
#985000
1!
1I
1e
1f
#990000
0!
11
0/
1.
0I
1P
0N
1M
1'!
0)!
1,!
0e
0f
0t!
1u!
0v!
1(!
0*!
0.!
0/!
1-!
10!
#995000
1!
1I
1e
1f
